run_TA.vcd
$date
  Wed Oct 26 01:16:36 2016
$end
$version
  GHDL v0
$end
$timescale
  1 fs
$end
$var reg 1 ! start_mc $end
$var reg 1 " reset $end
$var reg 1 # mem_bit $end
$var reg 1 $ clk $end
$var reg 16 % instr_data_in[15:0] $end
$var reg 16 & addr_wr[15:0] $end
$scope module dut $end
$var reg 1 ' start_mc $end
$var reg 1 ( reset $end
$var reg 1 ) clk $end
$var reg 16 * instr_data_in[15:0] $end
$var reg 16 + addr_wr[15:0] $end
$var reg 1 , mem_bit $end
$var reg 32 - t_arr[0:31] $end
$var reg 16 . ir_val[15:0] $end
$var reg 1 / carry $end
$var reg 1 0 zero $end
$var reg 1 1 donecp $end
$var reg 5 2 p[4:0] $end
$var reg 16 3 mem_dout[15:0] $end
$var reg 16 4 mem_din[15:0] $end
$var reg 16 5 mem_ain[15:0] $end
$var reg 16 6 bitwise_and_i[15:0] $end
$var reg 16 7 bitwise_and_d[15:0] $end
$var reg 16 8 ram_d_in[15:0] $end
$var reg 16 9 ram_a_in[15:0] $end
$var reg 1 : mem_write $end
$scope module cp $end
$var reg 32 ; t_arr[0:31] $end
$var reg 5 < p[4:0] $end
$var reg 16 = ir_val[15:0] $end
$var reg 1 > start_state $end
$var reg 1 ? done_state $end
$var reg 1 @ clk $end
$var reg 1 A reset $end
$comment fsm_state is not handled $end
$upscope $end
$scope module dp $end
$var reg 32 B t[0:31] $end
$var reg 5 C p[4:0] $end
$var reg 16 D mem_dout[15:0] $end
$var reg 16 E mem_din[15:0] $end
$var reg 16 F mem_ain[15:0] $end
$var reg 1 G clk $end
$var reg 16 H ir_val[15:0] $end
$var reg 16 I d1_sig[15:0] $end
$var reg 16 J d2_sig[15:0] $end
$var reg 16 K d5_sig[15:0] $end
$var reg 16 L ir_sig[15:0] $end
$var reg 16 M t1_sig[15:0] $end
$var reg 16 N t2_sig[15:0] $end
$var reg 16 O t3_sig[15:0] $end
$var reg 16 P t4_sig[15:0] $end
$var reg 16 Q t1_in[15:0] $end
$var reg 16 R m1_out[15:0] $end
$var reg 16 S m2_out[15:0] $end
$var reg 16 T m3_out[15:0] $end
$var reg 16 U m4_out[15:0] $end
$var reg 16 V m5_out[15:0] $end
$var reg 16 W m6_out[15:0] $end
$var reg 16 X m7_out[15:0] $end
$var reg 16 Y m8_out[15:0] $end
$var reg 16 Z m9_out[15:0] $end
$var reg 3 [ m10_out[2:0] $end
$var reg 3 \ m11_out[2:0] $end
$var reg 3 ] m12_out[2:0] $end
$var reg 16 ^ pad_sig[15:0] $end
$var reg 16 _ alu_a_sig[15:0] $end
$var reg 16 ` alu_b_sig[15:0] $end
$var reg 16 a alu_out_sig[15:0] $end
$var reg 16 b none_sig[15:0] $end
$var reg 16 c se6_out[15:0] $end
$var reg 16 d se9_out[15:0] $end
$var reg 16 e pe2_sig[15:0] $end
$var reg 1 f c_sig[0:0] $end
$var reg 1 g z_sig[0:0] $end
$var reg 3 h pe1_sig[2:0] $end
$var reg 1 i done $end
$scope module ir $end
$var reg 16 j din[15:0] $end
$var reg 16 k dout[15:0] $end
$var reg 1 l clk $end
$var reg 1 m enable $end
$upscope $end
$scope module rf $end
$var reg 1 n done $end
$var reg 1 o clk $end
$var reg 1 p pc_wr $end
$var reg 1 q rf_wr $end
$var reg 3 r a1rf[2:0] $end
$var reg 3 s a2rf[2:0] $end
$var reg 3 t a3rf[2:0] $end
$var reg 16 u d1rf[15:0] $end
$var reg 16 v d2rf[15:0] $end
$var reg 16 w d3rf[15:0] $end
$var reg 16 x d4rf[15:0] $end
$var reg 16 y d5rf[15:0] $end
$comment rf is not handled $end
$var reg 1 z done_1 $end
$var reg 1 { done_2 $end
$upscope $end
$scope module m1 $end
$var reg 16 | i0[15:0] $end
$var reg 16 } i1[15:0] $end
$var reg 16 !" o[15:0] $end
$var reg 1 "" sel $end
$upscope $end
$scope module m2 $end
$var reg 16 #" i0[15:0] $end
$var reg 16 $" i1[15:0] $end
$var reg 16 %" i2[15:0] $end
$var reg 16 &" i3[15:0] $end
$var reg 16 '" o[15:0] $end
$var reg 2 (" sel[1:0] $end
$upscope $end
$scope module m3 $end
$var reg 16 )" i0[15:0] $end
$var reg 16 *" i1[15:0] $end
$var reg 16 +" o[15:0] $end
$var reg 1 ," sel $end
$upscope $end
$scope module m4 $end
$var reg 16 -" i0[15:0] $end
$var reg 16 ." i1[15:0] $end
$var reg 16 /" i2[15:0] $end
$var reg 16 0" i3[15:0] $end
$var reg 16 1" o[15:0] $end
$var reg 2 2" sel[1:0] $end
$upscope $end
$scope module m5 $end
$var reg 16 3" i0[15:0] $end
$var reg 16 4" i1[15:0] $end
$var reg 16 5" i2[15:0] $end
$var reg 16 6" i3[15:0] $end
$var reg 16 7" o[15:0] $end
$var reg 2 8" sel[1:0] $end
$upscope $end
$scope module m6 $end
$var reg 16 9" i0[15:0] $end
$var reg 16 :" i1[15:0] $end
$var reg 16 ;" i2[15:0] $end
$var reg 16 <" i3[15:0] $end
$var reg 16 =" o[15:0] $end
$var reg 2 >" sel[1:0] $end
$upscope $end
$scope module m7 $end
$var reg 16 ?" i0[15:0] $end
$var reg 16 @" i1[15:0] $end
$var reg 16 A" o[15:0] $end
$var reg 1 B" sel $end
$upscope $end
$scope module m8 $end
$var reg 16 C" i0[15:0] $end
$var reg 16 D" i1[15:0] $end
$var reg 16 E" i2[15:0] $end
$var reg 16 F" i3[15:0] $end
$var reg 16 G" o[15:0] $end
$var reg 2 H" sel[1:0] $end
$upscope $end
$scope module m9 $end
$var reg 16 I" i0[15:0] $end
$var reg 16 J" i1[15:0] $end
$var reg 16 K" i2[15:0] $end
$var reg 16 L" i3[15:0] $end
$var reg 16 M" o[15:0] $end
$var reg 2 N" sel[1:0] $end
$upscope $end
$scope module m10 $end
$var reg 3 O" i0[2:0] $end
$var reg 3 P" i1[2:0] $end
$var reg 3 Q" o[2:0] $end
$var reg 1 R" sel $end
$upscope $end
$scope module m11 $end
$var reg 3 S" i0[2:0] $end
$var reg 3 T" i1[2:0] $end
$var reg 3 U" i2[2:0] $end
$var reg 3 V" i3[2:0] $end
$var reg 3 W" o[2:0] $end
$var reg 2 X" sel[1:0] $end
$upscope $end
$scope module m12 $end
$var reg 3 Y" i0[2:0] $end
$var reg 3 Z" i1[2:0] $end
$var reg 3 [" o[2:0] $end
$var reg 1 \" sel $end
$upscope $end
$scope module pe $end
$var reg 16 ]" x[15:0] $end
$var reg 3 ^" s[2:0] $end
$var reg 16 _" d[15:0] $end
$var reg 1 `" err_flag $end
$var integer 32 a" location $end
$var reg 3 b" s1[2:0] $end
$upscope $end
$scope module alu0 $end
$var reg 16 c" alu_a[15:0] $end
$var reg 16 d" alu_b[15:0] $end
$var reg 16 e" alu_out[15:0] $end
$var reg 1 f" alu_c_out $end
$var reg 1 g" alu_z_out $end
$var reg 2 h" op_code[1:0] $end
$var reg 16 i" gaa[15:0] $end
$var reg 16 j" gnn[15:0] $end
$var reg 16 k" gxx[15:0] $end
$var reg 16 l" ga[15:0] $end
$var reg 16 m" gn[15:0] $end
$var reg 16 n" gx[15:0] $end
$var reg 16 o" fa[15:0] $end
$var reg 16 p" fn[15:0] $end
$var reg 16 q" fx[15:0] $end
$var reg 1 r" gca $end
$var reg 1 s" gcaa $end
$var reg 1 t" gcn $end
$var reg 1 u" gcnn $end
$var reg 1 v" gcxx $end
$var reg 1 w" gcx $end
$var reg 1 x" gzaa $end
$var reg 1 y" gza $end
$var reg 1 z" gznn $end
$var reg 1 {" gzn $end
$var reg 1 |" gzxx $end
$var reg 1 }" gzx $end
$var reg 1 !# fca $end
$var reg 1 "# fcn $end
$var reg 1 ## fcx $end
$var reg 1 $# fza $end
$var reg 1 %# fzn $end
$var reg 1 &# fzx $end
$var reg 1 '# t1 $end
$var reg 1 (# t2 $end
$scope module adder $end
$var reg 16 )# x[15:0] $end
$var reg 16 *# y[15:0] $end
$var reg 16 +# s[15:0] $end
$var reg 1 ,# carry_out $end
$var reg 1 -# zero_out $end
$var reg 16 .# g[15:0] $end
$var reg 16 /# z[15:0] $end
$scope module o1 $end
$var reg 1 0# a $end
$var reg 1 1# b $end
$var reg 1 2# cin $end
$var reg 1 3# s $end
$var reg 1 4# cout $end
$upscope $end
$scope module o2 $end
$var reg 1 5# a $end
$var reg 1 6# b $end
$var reg 1 7# cin $end
$var reg 1 8# s $end
$var reg 1 9# cout $end
$upscope $end
$scope module o3 $end
$var reg 1 :# a $end
$var reg 1 ;# b $end
$var reg 1 <# cin $end
$var reg 1 =# s $end
$var reg 1 ># cout $end
$upscope $end
$scope module o4 $end
$var reg 1 ?# a $end
$var reg 1 @# b $end
$var reg 1 A# cin $end
$var reg 1 B# s $end
$var reg 1 C# cout $end
$upscope $end
$scope module o5 $end
$var reg 1 D# a $end
$var reg 1 E# b $end
$var reg 1 F# cin $end
$var reg 1 G# s $end
$var reg 1 H# cout $end
$upscope $end
$scope module o6 $end
$var reg 1 I# a $end
$var reg 1 J# b $end
$var reg 1 K# cin $end
$var reg 1 L# s $end
$var reg 1 M# cout $end
$upscope $end
$scope module o7 $end
$var reg 1 N# a $end
$var reg 1 O# b $end
$var reg 1 P# cin $end
$var reg 1 Q# s $end
$var reg 1 R# cout $end
$upscope $end
$scope module o8 $end
$var reg 1 S# a $end
$var reg 1 T# b $end
$var reg 1 U# cin $end
$var reg 1 V# s $end
$var reg 1 W# cout $end
$upscope $end
$scope module o9 $end
$var reg 1 X# a $end
$var reg 1 Y# b $end
$var reg 1 Z# cin $end
$var reg 1 [# s $end
$var reg 1 \# cout $end
$upscope $end
$scope module o10 $end
$var reg 1 ]# a $end
$var reg 1 ^# b $end
$var reg 1 _# cin $end
$var reg 1 `# s $end
$var reg 1 a# cout $end
$upscope $end
$scope module o11 $end
$var reg 1 b# a $end
$var reg 1 c# b $end
$var reg 1 d# cin $end
$var reg 1 e# s $end
$var reg 1 f# cout $end
$upscope $end
$scope module o12 $end
$var reg 1 g# a $end
$var reg 1 h# b $end
$var reg 1 i# cin $end
$var reg 1 j# s $end
$var reg 1 k# cout $end
$upscope $end
$scope module o13 $end
$var reg 1 l# a $end
$var reg 1 m# b $end
$var reg 1 n# cin $end
$var reg 1 o# s $end
$var reg 1 p# cout $end
$upscope $end
$scope module o14 $end
$var reg 1 q# a $end
$var reg 1 r# b $end
$var reg 1 s# cin $end
$var reg 1 t# s $end
$var reg 1 u# cout $end
$upscope $end
$scope module o15 $end
$var reg 1 v# a $end
$var reg 1 w# b $end
$var reg 1 x# cin $end
$var reg 1 y# s $end
$var reg 1 z# cout $end
$upscope $end
$scope module o16 $end
$var reg 1 {# a $end
$var reg 1 |# b $end
$var reg 1 }# cin $end
$var reg 1 !$ s $end
$var reg 1 "$ cout $end
$upscope $end
$upscope $end
$scope module nander $end
$var reg 16 #$ x[15:0] $end
$var reg 16 $$ y[15:0] $end
$var reg 16 %$ s[15:0] $end
$var reg 1 &$ carry_out $end
$var reg 1 '$ zero_out $end
$var reg 16 ($ g[15:0] $end
$var reg 16 )$ z[15:0] $end
$upscope $end
$scope module xorer $end
$var reg 16 *$ x[15:0] $end
$var reg 16 +$ y[15:0] $end
$var reg 16 ,$ s[15:0] $end
$var reg 1 -$ carry_out $end
$var reg 1 .$ zero_out $end
$var reg 16 /$ g[15:0] $end
$var reg 16 0$ z[15:0] $end
$upscope $end
$scope module add_out $end
$var reg 16 1$ input[15:0] $end
$var reg 16 2$ output[15:0] $end
$var reg 1 3$ carry_in $end
$var reg 1 4$ zero_in $end
$var reg 1 5$ carry_out $end
$var reg 1 6$ zero_out $end
$var reg 1 7$ op $end
$var reg 16 8$ outputsig[15:0] $end
$upscope $end
$scope module nand_out $end
$var reg 16 9$ input[15:0] $end
$var reg 16 :$ output[15:0] $end
$var reg 1 ;$ carry_in $end
$var reg 1 <$ zero_in $end
$var reg 1 =$ carry_out $end
$var reg 1 >$ zero_out $end
$var reg 1 ?$ op $end
$var reg 16 @$ outputsig[15:0] $end
$upscope $end
$scope module xor_out $end
$var reg 16 A$ input[15:0] $end
$var reg 16 B$ output[15:0] $end
$var reg 1 C$ carry_in $end
$var reg 1 D$ zero_in $end
$var reg 1 E$ carry_out $end
$var reg 1 F$ zero_out $end
$var reg 1 G$ op $end
$var reg 16 H$ outputsig[15:0] $end
$upscope $end
$upscope $end
$scope module addone $end
$var reg 16 I$ i[15:0] $end
$var reg 16 J$ o[15:0] $end
$upscope $end
$scope module t1 $end
$var reg 16 K$ din[15:0] $end
$var reg 16 L$ dout[15:0] $end
$var reg 1 M$ clk $end
$var reg 1 N$ enable $end
$upscope $end
$scope module t2 $end
$var reg 16 O$ din[15:0] $end
$var reg 16 P$ dout[15:0] $end
$var reg 1 Q$ clk $end
$var reg 1 R$ enable $end
$upscope $end
$scope module t3 $end
$var reg 16 S$ din[15:0] $end
$var reg 16 T$ dout[15:0] $end
$var reg 1 U$ clk $end
$var reg 1 V$ enable $end
$upscope $end
$scope module t4 $end
$var reg 16 W$ din[15:0] $end
$var reg 16 X$ dout[15:0] $end
$var reg 1 Y$ clk $end
$var reg 1 Z$ enable $end
$upscope $end
$scope module c $end
$var reg 1 [$ din[0:0] $end
$var reg 1 \$ dout[0:0] $end
$var reg 1 ]$ clk $end
$var reg 1 ^$ enable $end
$upscope $end
$scope module z $end
$var reg 1 _$ din[0:0] $end
$var reg 1 `$ dout[0:0] $end
$var reg 1 a$ clk $end
$var reg 1 b$ enable $end
$upscope $end
$scope module se9 $end
$var reg 9 c$ in_9[9:1] $end
$var reg 16 d$ out_16[16:1] $end
$upscope $end
$scope module se6 $end
$var reg 6 e$ in_6[6:1] $end
$var reg 16 f$ out_16[16:1] $end
$upscope $end
$scope module pad $end
$var reg 9 g$ i[8:0] $end
$var reg 16 h$ o[15:0] $end
$upscope $end
$upscope $end
$scope module ram_port $end
$var reg 1 i$ clock $end
$var reg 1 j$ writeen $end
$var reg 16 k$ address[15:0] $end
$var reg 16 l$ datain[15:0] $end
$var reg 16 m$ dataout[15:0] $end
$comment ram is not handled $end
$var reg 16 n$ read_address[15:0] $end
$upscope $end
$upscope $end
$enddefinitions $end
#0
U!
U"
1#
0$
bUUUUUUUUUUUUUUUU %
bUUUUUUUUUUUUUUUU &
U'
U(
0)
bUUUUUUUUUUUUUUUU *
bUUUUUUUUUUUUUUUU +
1,
b10000000001000000010001001000000 -
bUUUUUUUUUUUUUUUU .
U/
U0
01
b0U1UU 2
bUUUUUUUUUUUUUUUU 3
bUUUUUUUUUUUUUUUU 4
bUUUUUUUUUUUUUUUU 5
b1111111111111111 6
b0000000000000000 7
bUUUUUUUUUUUUUUUU 8
bUUUUUUUUUUUUUUUU 9
1:
b10000000001000000010001001000000 ;
b0U1UU <
bUUUUUUUUUUUUUUUU =
U>
0?
0@
UA
b10000000001000000010001001000000 B
b0U1UU C
bUUUUUUUUUUUUUUUU D
bUUUUUUUUUUUUUUUU E
bUUUUUUUUUUUUUUUU F
0G
bUUUUUUUUUUUUUUUU H
bUUUUUUUUUUUUUUUU I
bUUUUUUUUUUUUUUUU J
bUUUUUUUUUUUUUUUU K
bUUUUUUUUUUUUUUUU L
bUUUUUUUUUUUUUUUU M
bUUUUUUUUUUUUUUUU N
bUUUUUUUUUUUUUUUU O
bUUUUUUUUUUUUUUUU P
bXXXXXXXXXXXXXXXX Q
bUUUUUUUUUUUUUUUU R
b0000000000000000 S
bUUUUUUUUUUUUUUUU T
b0000000000000000 U
b0000000000000000 V
bUUUUUUUUUUUUUUUU W
bUUUUUUUUUUUUUUUU X
bUUUUUUUUUUUUUUUU Y
bUUUUUUUUUUUUUUUU Z
bUUU [
b000 \
bUUU ]
bUUUUUUUUU0000000 ^
b0000000000000000 _
b0000000000000000 `
bUUUUUUUUUUUUUUUU a
b0000000000000000 b
b00000000000UUUUU c
b00000000UUUUUUUU d
bUUUUUUUUUUUUUUU0 e
b0 f
bU g
bUUU h
0i
bUUUUUUUUUUUUUUUU j
bUUUUUUUUUUUUUUUU k
0l
1m
0n
0o
0p
0q
bUUU r
b000 s
bUUU t
bUUUUUUUUUUUUUUUU u
bUUUUUUUUUUUUUUUU v
bUUUUUUUUUUUUUUUU w
bUUUUUUUUUUUUUUUU x
bUUUUUUUUUUUUUUUU y
0z
0{
bUUUUUUUUUUUUUUUU |
bUUUUUUUUUUUUUUUU }
bUUUUUUUUUUUUUUUU !"
1""
b0000000000000000 #"
bXXXXXXXXXXXXXXXX $"
bUUUUUUUUUUUUUUUU %"
bUUUUUUUUUUUUUUUU &"
b0000000000000000 '"
b00 ("
bUUUUUUUUUUUUUUUU )"
bUUUUUUUUUUUUUUUU *"
bUUUUUUUUUUUUUUUU +"
0,"
b0000000000000000 -"
b00000000000UUUUU ."
b00000000UUUUUUUU /"
bUUUUUUUUUUUUUUUU 0"
b0000000000000000 1"
b00 2"
b0000000000000000 3"
b00000000UUUUUUUU 4"
bUUUUUUUUUUUUUUUU 5"
bUUUUUUUUUUUUUUU0 6"
b0000000000000000 7"
b00 8"
bUUUUUUUUUUUUUUUU 9"
bUUUUUUUUUUUUUUUU :"
b00000000000UUUUU ;"
b00000000UUUUUUUU <"
bUUUUUUUUUUUUUUUU ="
b00 >"
bUUUUUUUUUUUUUUUU ?"
bUUUUUUUUUUUUUUUU @"
bUUUUUUUUUUUUUUUU A"
1B"
bUUUUUUUUUUUUUUUU C"
bUUUUUUUUUUUUUUUU D"
b0000000000000000 E"
b0000000000000000 F"
bUUUUUUUUUUUUUUUU G"
b00 H"
bUUUUUUUUUUUUUUUU I"
bUUUUUUUUU0000000 J"
bUUUUUUUUUUUUUUUU K"
bUUUUUUUUUUUUUUUU L"
bUUUUUUUUUUUUUUUU M"
b00 N"
bUUU O"
bUUU P"
bUUU Q"
0R"
b000 S"
bUUU T"
bUUU U"
bUUU V"
b000 W"
b00 X"
bUUU Y"
bUUU Z"
bUUU ["
0\"
bUUUUUUUUUUUUUUUU ]"
bUUU ^"
bUUUUUUUUUUUUUUU0 _"
1`"
b0 a"
bUUU b"
bUUUUUUUUUUUUUUUU c"
b0000000000000000 d"
bUUUUUUUUUUUUUUUU e"
0f"
Ug"
b00 h"
bUUUUUUUUUUUUUUUU i"
bUUUUUUUUUUUUUUUU j"
bUUUUUUUUUUUUUUUU k"
bUUUUUUUUUUUUUUUU l"
b1111111111111111 m"
bUUUUUUUUUUUUUUUU n"
bUUUUUUUUUUUUUUUU o"
b0000000000000000 p"
b0000000000000000 q"
0r"
Us"
0t"
Uu"
Uv"
0w"
Ux"
Uy"
Uz"
0{"
U|"
0}"
0!#
0"#
0##
U$#
0%#
0&#
1'#
0(#
bUUUUUUUUUUUUUUUU )#
b0000000000000000 *#
bUUUUUUUUUUUUUUUU +#
0,#
U-#
b000000000000000U .#
bUUUUUUUUUUUUUUUU /#
U0#
01#
02#
U3#
04#
U5#
06#
07#
U8#
09#
U:#
0;#
0<#
U=#
0>#
U?#
0@#
0A#
UB#
0C#
UD#
0E#
0F#
UG#
0H#
UI#
0J#
0K#
UL#
0M#
UN#
0O#
0P#
UQ#
0R#
US#
0T#
0U#
UV#
0W#
UX#
0Y#
0Z#
U[#
0\#
U]#
0^#
0_#
U`#
0a#
Ub#
0c#
0d#
Ue#
0f#
Ug#
0h#
0i#
Uj#
0k#
Ul#
0m#
0n#
Uo#
0p#
Uq#
0r#
0s#
Ut#
0u#
Uv#
0w#
0x#
Uy#
0z#
U{#
0|#
0}#
U!$
0"$
bUUUUUUUUUUUUUUUU #$
b0000000000000000 $$
b1111111111111111 %$
0&$
0'$
bUUUUUUUUUUUUUUUU ($
b1111111111111111 )$
bUUUUUUUUUUUUUUUU *$
b0000000000000000 +$
bUUUUUUUUUUUUUUUU ,$
0-$
0.$
bUUUUUUUUUUUUUUUU /$
bUUUUUUUUUUUUUUUU 0$
bUUUUUUUUUUUUUUUU 1$
bUUUUUUUUUUUUUUUU 2$
03$
U4$
05$
U6$
17$
bUUUUUUUUUUUUUUUU 8$
b1111111111111111 9$
b0000000000000000 :$
0;$
0<$
0=$
0>$
0?$
b0000000000000000 @$
bUUUUUUUUUUUUUUUU A$
b0000000000000000 B$
0C$
0D$
0E$
0F$
0G$
b0000000000000000 H$
bUUUUUUUUUUUUUUUU I$
bXXXXXXXXXXXXXXXX J$
bXXXXXXXXXXXXXXXX K$
bUUUUUUUUUUUUUUUU L$
0M$
1N$
b0000000000000000 O$
bUUUUUUUUUUUUUUUU P$
0Q$
0R$
bUUUUUUUUUUUUUUUU S$
bUUUUUUUUUUUUUUUU T$
0U$
0V$
b0000000000000000 W$
bUUUUUUUUUUUUUUUU X$
0Y$
0Z$
b0 [$
bU \$
0]$
0^$
bU _$
bU `$
0a$
0b$
bUUUUUUUUU c$
b00000000UUUUUUUU d$
bUUUUUU e$
b00000000000UUUUU f$
bUUUUUUUUU g$
bUUUUUUUUU0000000 h$
0i$
1j$
bUUUUUUUUUUUUUUUU k$
bUUUUUUUUUUUUUUUU l$
bUUUUUUUUUUUUUUUU m$
bUUUUUUUUUUUUUUUU n$
#50000000
1$
1)
b00000000000000000000000000000000 -
b00000000000000000000000000000000 ;
1@
b00000000000000000000000000000000 B
1G
bXXXXXXXXXXXXXXXX M
1i
1l
0m
1n
1o
1z
0""
0B"
bXXXXXXXXXXXXXXXX D"
bXXXXXXXXXXXXXXXX L"
bXXXXXXXXXXXXXXXX L$
1M$
0N$
1Q$
1U$
1Y$
1]$
1a$
1i$
#100000000
0!
1"
0$
b1000000000011101 %
b0000000000000000 &
0'
1(
0)
b1000000000011101 *
b0000000000000000 +
b1000000000011101 8
b0000000000000000 9
0>
0@
1A
0G
0i
0l
0n
0o
0z
0M$
0Q$
0U$
0Y$
0]$
0a$
0i$
b0000000000000000 k$
b1000000000011101 l$
#150000000
1$
1)
b1000000000011101 3
1@
b1000000000011101 D
1G
1i
b1000000000011101 j
1l
1n
1o
1z
b1000000000011101 :"
1M$
1Q$
1U$
1Y$
1]$
1a$
1i$
b1000000000011101 m$
#200000000
0$
b0100100110000101 %
b0000000000000001 &
0)
b0100100110000101 *
b0000000000000001 +
bUUUUUUUUUUUUUUUU 3
b0100100110000101 8
b0000000000000001 9
0@
bUUUUUUUUUUUUUUUU D
0G
0i
bUUUUUUUUUUUUUUUU j
0l
0n
0o
0z
bUUUUUUUUUUUUUUUU :"
0M$
0Q$
0U$
0Y$
0]$
0a$
0i$
b0000000000000001 k$
b0100100110000101 l$
bUUUUUUUUUUUUUUUU m$
#250000000
1$
1)
b0100100110000101 3
1@
b0100100110000101 D
1G
1i
b0100100110000101 j
1l
1n
1o
1z
b0100100110000101 :"
1M$
1Q$
1U$
1Y$
1]$
1a$
1i$
b0100100110000101 m$
#300000000
0$
b0001000110111110 %
b0000000000000010 &
0)
b0001000110111110 *
b0000000000000010 +
bUUUUUUUUUUUUUUUU 3
b0001000110111110 8
b0000000000000010 9
0@
bUUUUUUUUUUUUUUUU D
0G
0i
bUUUUUUUUUUUUUUUU j
0l
0n
0o
0z
bUUUUUUUUUUUUUUUU :"
0M$
0Q$
0U$
0Y$
0]$
0a$
0i$
b0000000000000010 k$
b0001000110111110 l$
bUUUUUUUUUUUUUUUU m$
#350000000
1$
1)
b0001000110111110 3
1@
b0001000110111110 D
1G
1i
b0001000110111110 j
1l
1n
1o
1z
b0001000110111110 :"
1M$
1Q$
1U$
1Y$
1]$
1a$
1i$
b0001000110111110 m$
#400000000
0$
b0100110110000101 %
b0000000000000011 &
0)
b0100110110000101 *
b0000000000000011 +
bUUUUUUUUUUUUUUUU 3
b0100110110000101 8
b0000000000000011 9
0@
bUUUUUUUUUUUUUUUU D
0G
0i
bUUUUUUUUUUUUUUUU j
0l
0n
0o
0z
bUUUUUUUUUUUUUUUU :"
0M$
0Q$
0U$
0Y$
0]$
0a$
0i$
b0000000000000011 k$
b0100110110000101 l$
bUUUUUUUUUUUUUUUU m$
#450000000
1$
1)
b0100110110000101 3
1@
b0100110110000101 D
1G
1i
b0100110110000101 j
1l
1n
1o
1z
b0100110110000101 :"
1M$
1Q$
1U$
1Y$
1]$
1a$
1i$
b0100110110000101 m$
#500000000
0$
b0110000000000011 %
b0000000000000100 &
0)
b0110000000000011 *
b0000000000000100 +
bUUUUUUUUUUUUUUUU 3
b0110000000000011 8
b0000000000000100 9
0@
bUUUUUUUUUUUUUUUU D
0G
0i
bUUUUUUUUUUUUUUUU j
0l
0n
0o
0z
bUUUUUUUUUUUUUUUU :"
0M$
0Q$
0U$
0Y$
0]$
0a$
0i$
b0000000000000100 k$
b0110000000000011 l$
bUUUUUUUUUUUUUUUU m$
#550000000
1$
1)
b0110000000000011 3
1@
b0110000000000011 D
1G
1i
b0110000000000011 j
1l
1n
1o
1z
b0110000000000011 :"
1M$
1Q$
1U$
1Y$
1]$
1a$
1i$
b0110000000000011 m$
#600000000
0$
b0001010000000000 %
b0000000000000101 &
0)
b0001010000000000 *
b0000000000000101 +
bUUUUUUUUUUUUUUUU 3
b0001010000000000 8
b0000000000000101 9
0@
bUUUUUUUUUUUUUUUU D
0G
0i
bUUUUUUUUUUUUUUUU j
0l
0n
0o
0z
bUUUUUUUUUUUUUUUU :"
0M$
0Q$
0U$
0Y$
0]$
0a$
0i$
b0000000000000101 k$
b0001010000000000 l$
bUUUUUUUUUUUUUUUU m$
#650000000
1$
1)
b0001010000000000 3
1@
b0001010000000000 D
1G
1i
b0001010000000000 j
1l
1n
1o
1z
b0001010000000000 :"
1M$
1Q$
1U$
1Y$
1]$
1a$
1i$
b0001010000000000 m$
#700000000
0$
b0010011001000000 %
b0000000000000110 &
0)
b0010011001000000 *
b0000000000000110 +
bUUUUUUUUUUUUUUUU 3
b0010011001000000 8
b0000000000000110 9
0@
bUUUUUUUUUUUUUUUU D
0G
0i
bUUUUUUUUUUUUUUUU j
0l
0n
0o
0z
bUUUUUUUUUUUUUUUU :"
0M$
0Q$
0U$
0Y$
0]$
0a$
0i$
b0000000000000110 k$
b0010011001000000 l$
bUUUUUUUUUUUUUUUU m$
#750000000
1$
1)
b0010011001000000 3
1@
b0010011001000000 D
1G
1i
b0010011001000000 j
1l
1n
1o
1z
b0010011001000000 :"
1M$
1Q$
1U$
1Y$
1]$
1a$
1i$
b0010011001000000 m$
#800000000
0$
b0010011011011000 %
b0000000000000111 &
0)
b0010011011011000 *
b0000000000000111 +
bUUUUUUUUUUUUUUUU 3
b0010011011011000 8
b0000000000000111 9
0@
bUUUUUUUUUUUUUUUU D
0G
0i
bUUUUUUUUUUUUUUUU j
0l
0n
0o
0z
bUUUUUUUUUUUUUUUU :"
0M$
0Q$
0U$
0Y$
0]$
0a$
0i$
b0000000000000111 k$
b0010011011011000 l$
bUUUUUUUUUUUUUUUU m$
#850000000
1$
1)
b0010011011011000 3
1@
b0010011011011000 D
1G
1i
b0010011011011000 j
1l
1n
1o
1z
b0010011011011000 :"
1M$
1Q$
1U$
1Y$
1]$
1a$
1i$
b0010011011011000 m$
#900000000
0$
b0001011011000000 %
b0000000000001000 &
0)
b0001011011000000 *
b0000000000001000 +
bUUUUUUUUUUUUUUUU 3
b0001011011000000 8
b0000000000001000 9
0@
bUUUUUUUUUUUUUUUU D
0G
0i
bUUUUUUUUUUUUUUUU j
0l
0n
0o
0z
bUUUUUUUUUUUUUUUU :"
0M$
0Q$
0U$
0Y$
0]$
0a$
0i$
b0000000000001000 k$
b0001011011000000 l$
bUUUUUUUUUUUUUUUU m$
#950000000
1$
1)
b0001011011000000 3
1@
b0001011011000000 D
1G
1i
b0001011011000000 j
1l
1n
1o
1z
b0001011011000000 :"
1M$
1Q$
1U$
1Y$
1]$
1a$
1i$
b0001011011000000 m$
#1000000000
0$
b0000100100010001 %
b0000000000001001 &
0)
b0000100100010001 *
b0000000000001001 +
bUUUUUUUUUUUUUUUU 3
b0000100100010001 8
b0000000000001001 9
0@
bUUUUUUUUUUUUUUUU D
0G
0i
bUUUUUUUUUUUUUUUU j
0l
0n
0o
0z
bUUUUUUUUUUUUUUUU :"
0M$
0Q$
0U$
0Y$
0]$
0a$
0i$
b0000000000001001 k$
b0000100100010001 l$
bUUUUUUUUUUUUUUUU m$
#1050000000
1$
1)
b0000100100010001 3
1@
b0000100100010001 D
1G
1i
b0000100100010001 j
1l
1n
1o
1z
b0000100100010001 :"
1M$
1Q$
1U$
1Y$
1]$
1a$
1i$
b0000100100010001 m$
#1100000000
0$
b0000000000000000 %
b0000000000001010 &
0)
b0000000000000000 *
b0000000000001010 +
bUUUUUUUUUUUUUUUU 3
b0000000000000000 8
b0000000000001010 9
0@
bUUUUUUUUUUUUUUUU D
0G
0i
bUUUUUUUUUUUUUUUU j
0l
0n
0o
0z
bUUUUUUUUUUUUUUUU :"
0M$
0Q$
0U$
0Y$
0]$
0a$
0i$
b0000000000001010 k$
b0000000000000000 l$
bUUUUUUUUUUUUUUUU m$
#1150000000
1$
1)
b0000000000000000 3
1@
b0000000000000000 D
1G
1i
b0000000000000000 j
1l
1n
1o
1z
b0000000000000000 :"
1M$
1Q$
1U$
1Y$
1]$
1a$
1i$
b0000000000000000 m$
#1200000000
0$
b0010110110110010 %
b0000000000001011 &
0)
b0010110110110010 *
b0000000000001011 +
bUUUUUUUUUUUUUUUU 3
b0010110110110010 8
b0000000000001011 9
0@
bUUUUUUUUUUUUUUUU D
0G
0i
bUUUUUUUUUUUUUUUU j
0l
0n
0o
0z
bUUUUUUUUUUUUUUUU :"
0M$
0Q$
0U$
0Y$
0]$
0a$
0i$
b0000000000001011 k$
b0010110110110010 l$
bUUUUUUUUUUUUUUUU m$
